<?xml version="1.0" encoding="utf-8"?>
<!-- Generator: Adobe Illustrator 20.1.0, SVG Export Plug-In . SVG Version: 6.00 Build 0)  -->
<svg version="1.1" id="Layer_1" xmlns="http://www.w3.org/2000/svg" xmlns:xlink="http://www.w3.org/1999/xlink" x="0px" y="0px"
	 viewBox="0 0 351.8 353.3" style="enable-background:new 0 0 351.8 353.3;" xml:space="preserve">
<path d="M343.6,135.7H216.8V8.9H135v126.8H8.2v81.9H135v126.8h81.9V217.6h126.8L343.6,135.7L343.6,135.7z M327.8,201.8h-111h-15.8
	v15.8v111h-50.3v-111v-15.8H135H24v-50.3h111h15.8v-15.8v-111h50.3v111v15.8h15.8h111L327.8,201.8L327.8,201.8z"/>
</svg>
