<?xml version="1.0" encoding="utf-8"?>
<!-- Generator: Adobe Illustrator 20.1.0, SVG Export Plug-In . SVG Version: 6.00 Build 0)  -->
<svg version="1.1" id="Layer_1" xmlns="http://www.w3.org/2000/svg" xmlns:xlink="http://www.w3.org/1999/xlink" x="0px" y="0px"
	 viewBox="0 0 64 52" style="enable-background:new 0 0 64 52;" xml:space="preserve">
<g>
	<g>
		<path d="M57.8,6.7c2.3,0,4.2,1.9,4.2,4.2v30.4c0,2.3-1.9,4.2-4.2,4.2H6.2c-2.3,0-4.2-1.9-4.2-4.2V10.9c0-2.3,1.9-4.2,4.2-4.2
			L57.8,6.7 M57.8,4.7H6.2C2.8,4.7,0,7.5,0,10.9v30.4c0,3.4,2.8,6.2,6.2,6.2h51.6c3.4,0,6.2-2.8,6.2-6.2V10.9
			C64,7.5,61.2,4.7,57.8,4.7L57.8,4.7z"/>
	</g>
	<rect x="1.3" y="25.1" width="61.4" height="2"/>
	<rect x="1.3" y="35.1" width="61.4" height="2"/>
	<rect x="30.5" y="40.6" width="9.8" height="2"/>
	<rect x="45.1" y="40.6" width="9.8" height="2"/>
	<rect x="27.9" y="10.3" width="28.7" height="2"/>
	<rect x="27.9" y="16.9" width="28.7" height="2"/>
</g>
</svg>
