<?xml version="1.0" encoding="utf-8"?>
<!-- Generator: Adobe Illustrator 20.1.0, SVG Export Plug-In . SVG Version: 6.00 Build 0)  -->
<svg version="1.1" id="Layer_1" xmlns="http://www.w3.org/2000/svg" xmlns:xlink="http://www.w3.org/1999/xlink" x="0px" y="0px"
	 viewBox="0 0 28 26" style="enable-background:new 0 0 28 26;" xml:space="preserve">
<g>
	<g>
		<path d="M20,0c-2.4,0-4.5,1.1-6,2.7C12.5,1.1,10.4,0,8,0C3.6,0,0,3.6,0,8c0,12,14,18,14,18s14-6,14-18C28,3.6,24.4,0,20,0z"/>
	</g>
</g>
</svg>
