<?xml version="1.0" encoding="utf-8"?>
<!-- Generator: Adobe Illustrator 20.1.0, SVG Export Plug-In . SVG Version: 6.00 Build 0)  -->
<svg version="1.1"
	 id="Layer_1" xmlns:cc="http://creativecommons.org/ns#" xmlns:dc="http://purl.org/dc/elements/1.1/" xmlns:inkscape="http://www.inkscape.org/namespaces/inkscape" xmlns:rdf="http://www.w3.org/1999/02/22-rdf-syntax-ns#" xmlns:sodipodi="http://sodipodi.sourceforge.net/DTD/sodipodi-0.dtd" xmlns:svg="http://www.w3.org/2000/svg"
	 xmlns="http://www.w3.org/2000/svg" xmlns:xlink="http://www.w3.org/1999/xlink" x="0px" y="0px" viewBox="0 0 100 99.9"
	 style="enable-background:new 0 0 100 99.9;" xml:space="preserve">
<g transform="translate(0,-952.36218)">
	<path d="M47.6,961.4c-0.6,0-1.1,0-1.7,0c-3,0.1-6,0.5-8.9,1.2c-21.9,5.5-35.3,27.8-29.8,49.7c5.5,21.9,27.8,35.3,49.7,29.8
		c21.9-5.5,35.3-27.8,29.8-49.7c-0.3-1.6-1.8-2.7-3.5-2.4c-1.6,0.3-2.7,1.8-2.4,3.5c0,0.1,0.1,0.3,0.1,0.4
		c4.7,18.8-6.6,37.8-25.4,42.5c-18.8,4.7-37.8-6.6-42.5-25.4c-4.7-18.8,6.6-37.8,25.4-42.5c10.1-2.5,20.7-0.5,29.1,5.7
		c1.3,1,3.2,0.8,4.2-0.5c1-1.3,0.8-3.2-0.5-4.2c-0.1-0.1-0.1-0.1-0.2-0.2C64.2,964.2,56,961.5,47.6,961.4L47.6,961.4z M90.8,965.3
		c-0.8,0-1.5,0.4-2,1c-10.7,11.2-29.7,31.9-41,43.9L33,997.1c-1.2-1.1-3.1-1-4.3,0.3c-1.1,1.2-1,3.1,0.3,4.3l17,15
		c1.2,1.1,3,1,4.2-0.2c11.2-11.7,31.9-34.4,43-46c1.2-1.2,1.2-3.1,0-4.2C92.5,965.6,91.7,965.3,90.8,965.3z"/>
</g>
</svg>
