<?xml version="1.0" encoding="utf-8"?>
<!-- Generator: Adobe Illustrator 20.1.0, SVG Export Plug-In . SVG Version: 6.00 Build 0)  -->
<svg version="1.1" id="Layer_1" xmlns="http://www.w3.org/2000/svg" xmlns:xlink="http://www.w3.org/1999/xlink" x="0px" y="0px"
	 viewBox="0 0 19.4 31.1" style="enable-background:new 0 0 19.4 31.1;" xml:space="preserve">
<polygon points="2.6,3.1 1.4,4.3 13.9,16.9 1.9,28.9 3.2,30.1 16.4,16.9 "/>
</svg>
