<?xml version="1.0" encoding="utf-8"?>
<!-- Generator: Adobe Illustrator 20.1.0, SVG Export Plug-In . SVG Version: 6.00 Build 0)  -->
<svg version="1.1" id="Layer_1" xmlns="http://www.w3.org/2000/svg" xmlns:xlink="http://www.w3.org/1999/xlink" x="0px" y="0px"
	 viewBox="0 0 67 62" style="enable-background:new 0 0 67 62;" xml:space="preserve">
<style type="text/css">
	.st0{fill:none;stroke:#000000;stroke-width:3;stroke-linecap:round;stroke-linejoin:round;}
	.st1{fill:none;stroke:#000000;stroke-width:3;stroke-miterlimit:10;}
	.st2{fill:none;stroke:#000000;stroke-width:4;stroke-linecap:round;stroke-linejoin:round;}
</style>
<title>Artboard 36</title>
<path class="st0" d="M16,20.6h42.2c0.9,0,1.6,0.8,1.6,1.7c0,0.2,0,0.4-0.1,0.5l-4.5,12c-0.8,2.4-3,4-5.5,4.2l-27.4,2.3"/>
<circle class="st1" cx="28.7" cy="51.5" r="4.6"/>
<circle class="st1" cx="48.6" cy="51.5" r="4.6"/>
<path class="st0" d="M4.2,16.1h9.6l2,6.6l7.1,22.9v-0.1l0.4,1.4c0.2,0.7,0.4,1.7,1.7,1.8"/>
<line class="st0" x1="53.7" y1="48.8" x2="52.3" y2="48.8"/>
<line class="st0" x1="44.9" y1="48.8" x2="32.4" y2="48.8"/>
<line class="st2" x1="4.2" y1="16.1" x2="10.3" y2="16.1"/>
<line class="st0" x1="38.4" y1="9.2" x2="38.4" y2="33.4"/>
<line class="st0" x1="45.4" y1="26.5" x2="38.4" y2="33.5"/>
<line class="st0" x1="31.5" y1="26.5" x2="38.4" y2="33.5"/>
</svg>
