<?xml version="1.0" encoding="UTF-8" standalone="no"?>
<svg  xml:space="preserve" style="enable-background:new 0 0 28 26;" viewBox="0 0 28 26" y="0px" x="0px" id="Layer_1" version="1.1">
  <g transform="matrix(0.94178753,0,0,0.94178753,0.81497463,0.75804236)" style="fill:#000000;stroke:#000000;stroke-opacity:1;fill-opacity:1" id="g5">
    <path style="fill:#000000;stroke:#000000;stroke-opacity:1;fill-opacity:1" id="path7" d="M 20,0 C 17.6,0 15.5,1.1 14,2.7 12.5,1.1 10.4,0 8,0 3.6,0 0,3.6 0,8 0,20 14,26 14,26 14,26 28,20 28,8 28,3.6 24.4,0 20,0 Z" />
  </g>
</svg>
